Hour: 01 | Distance: 33
Hour: 02 | Distance: 66
Hour: 03 | Distance: 99
Hour: 04 | Distance: 132
Hour: 05 | Distance: 165
Hour: 06 | Distance: 198
Hour: 07 | Distance: 231
Hour: 08 | Distance: 264
Hour: 09 | Distance: 297
Hour: 10 | Distance: 330
Hour: 11 | Distance: 363
Hour: 12 | Distance: 396
Hour: 13 | Distance: 429
Hour: 14 | Distance: 462
Hour: 15 | Distance: 495
Hour: 16 | Distance: 528
Hour: 17 | Distance: 561
Hour: 18 | Distance: 594
Hour: 19 | Distance: 627
Hour: 20 | Distance: 660
Hour: 21 | Distance: 693
Hour: 22 | Distance: 726
Hour: 23 | Distance: 759
Hour: 24 | Distance: 792
Hour: 25 | Distance: 825
Hour: 26 | Distance: 858
Hour: 27 | Distance: 891
Hour: 28 | Distance: 924
Hour: 29 | Distance: 957
Hour: 30 | Distance: 990
Hour: 31 | Distance: 1023
Hour: 32 | Distance: 1056
Hour: 33 | Distance: 1089
Hour: 34 | Distance: 1122
Hour: 35 | Distance: 1155
Hour: 36 | Distance: 1188
Hour: 37 | Distance: 1221
Hour: 38 | Distance: 1254
Hour: 39 | Distance: 1287
Hour: 40 | Distance: 1320
